﻿Time,Log,,,
,,,,
8/5/2020 11:45,  dot1x-proc:2[4078]: <124038> <4078> <INFO> |dot1x-proc:2|  Reused server clearpass for method=802.1x; user= ,  essid=bpe_lab_test, domain=<>, server-group=bpe_lab_test_dot1_svg
8/5/2020 11:45,  dot1x-proc:2[4078]: <520002> <4078> <ERRS> |dot1x-proc:2|  Authentication server request Timeout, username=  userip=0.0.0.0 usermac=88:a4:79:31:fd:63 servername= clearpass server-group=bpe_lab_test_dot1_svg serverip= 10.182.162.167 bssid=d0:15:a6:ab:9f:b2 apname=305,,
8/5/2020 11:45,  dot1x-proc:2[4078]: <124004> <4078> <DBUG> |dot1x-proc:2|  server_cbh (400)(DEC) : os_auths 0, s clearpass type 2 inservice 1 markedD 0 sg_name bpe_lab_test_dot1_svg,,
8/5/2020 11:45,  dot1x-proc:2[4078]: <124612> <4078> <DBUG> |dot1x-proc:2|  AuthSurv_onAuthFailed(authsurv:0): Entered, proto:0 eap-type:0x19 for username:' ' auth-server:'clearpass' server-group:'bpe_lab_test_dot1_svg' AnyRadLdapInOOS:'DontCare'.,,
,,,,
8/5/2020 11:45,  dot1x-proc:2[4078]: <124038> <4078> <INFO> |dot1x-proc:2|  Reused server clearpass for method=802.1x; user= ,  essid=bpe_lab_test, domain=<>, server-group=bpe_lab_test_dot1_svg
,,,,
8/5/2020 11:45,  dot1x-proc:2[4078]: <124038> <4078> <INFO> |dot1x-proc:2|  Reused server clearpass for method=802.1x; user= ,  essid=bpe_lab_test, domain=<>, server-group=bpe_lab_test_dot1_svg
8/5/2020 11:45,  dot1x-proc:2[4078]: <124004> <4078> <DBUG> |dot1x-proc:2|  server_cbh (400)(DEC) : os_auths 0, s clearpass type 2 inservice 1 markedD 0 sg_name bpe_lab_test_dot1_svg,,
8/5/2020 11:45,  dot1x-proc:2[4078]: <124612> <4078> <DBUG> |dot1x-proc:2|  AuthSurv_onAuthFailed(authsurv:0): Entered, proto:0 eap-type:0x19 for username:' ' auth-server:'clearpass' server-group:'bpe_lab_test_dot1_svg' AnyRadLdapInOOS:'DontCare'.,,
