Time,Log,,,,
,,,,,
8/5/2020 11:40,  dot1x-proc:1[4075]: <124038> <4075> <INFO> |dot1x-proc:1|  Reused server clearpass for method=802.1x; user=clatest,  essid=bpe_lab_test, domain=<>, server-group=bpe_lab_test_dot1_svg,
8/5/2020 11:40,  dot1x-proc:1[4075]: <520002> <4075> <ERRS> |dot1x-proc:1|  Authentication server request Timeout, username=clatest userip=0.0.0.0 usermac=88:a4:79:31:fd:63 servername= clearpass server-group=bpe_lab_test_dot1_svg serverip= 10.182.162.167 bssid=f4:2e:7f:35:27:b2 apname=325,,,
8/5/2020 11:40,  dot1x-proc:1[4075]: <522275> <4075> <WARN> |dot1x-proc:1|  User Authentication failed. username=clatest userip=0.0.0.0 usermac=88:a4:79:31:fd:63 authmethod=802.1x servername=clearpass serverip=10.182.162.167 apname=325 bssid=f4:2e:7f:35:27:b2 ,,,,
8/5/2020 11:40,  dot1x-proc:1[4075]: <124612> <4075> <DBUG> |dot1x-proc:1|  AuthSurv_onAuthFailed(authsurv:0): Entered, proto:0 eap-type:0x19 for username:'clatest' auth-server:'clearpass' server-group:'bpe_lab_test_dot1_svg' AnyRadLdapInOOS:'DontCare'.,,,
8/5/2020 11:40,  dot1x-proc:1[4075]: <124038> <4075> <INFO> |dot1x-proc:1|  Reused server clearpass for method=802.1x; user=clatest,  essid=bpe_lab_test, domain=<>, server-group=bpe_lab_test_dot1_svg,
8/5/2020 11:40,  dot1x-proc:1[4075]: <124004> <4075> <DBUG> |dot1x-proc:1|  Select server for method=802.1x, user=clatest, essid=bpe_lab_test, server-group=bpe_lab_test_dot1_svg, last_srv <>
8/5/2020 11:40,  dot1x-proc:1[4075]: <124038> <4075> <INFO> |dot1x-proc:1|  Reused server clearpass for method=802.1x; user=clatest,  essid=bpe_lab_test, domain=<>, server-group=bpe_lab_test_dot1_svg,
8/5/2020 11:40,  dot1x-proc:1[4075]: <522275> <4075> <WARN> |dot1x-proc:1|  User Authentication failed. username=clatest userip=0.0.0.0 usermac=88:a4:79:31:fd:63 authmethod=802.1x servername=clearpass serverip=10.182.162.167 apname=325 bssid=f4:2e:7f:35:27:b2 ,,,,
8/5/2020 11:40,  dot1x-proc:1[4075]: <124612> <4075> <DBUG> |dot1x-proc:1|  AuthSurv_onAuthFailed(authsurv:0): Entered, proto:0 eap-type:0x19 for username:'clatest' auth-server:'clearpass' server-group:'bpe_lab_test_dot1_svg' AnyRadLdapInOOS:'DontCare'.,,,
8/5/2020 11:40,  dot1x-proc:1[4075]: <138207> <4075> <INFO> |dot1x-proc:1|  RADIUS reject for station clatest 88:a4:79:31:fd:63 from server clearpass.,,,,
